{
    "metadata": [
      {
        "src": [
          {
            "files": [
              "Original/**/*.dll"
            ],
            "cwd": ".",
            "exclude": [
              "**/obj/**",
              "**/bin/**",
              "_site/**"
            ]
          }
        ],
        "dest": "yaml"
      }
    ],
    "build": {
      "content": [
        {
          "files": [
            "**.yml"
          ],
          "cwd": "yaml"
        },
        {
          "exclude": [
            "obj/**",
            "_site/**"
          ]
        }
      ],
      "resource": [
        {
          "exclude": [
            "obj/**",
            "_site/**"
          ]
        }
      ],
      "dest": "_site",
      "template": ["default"]
    }
  }